<svg viewBox="0 0 5 20" xmlns="http://www.w3.org/2000/svg">
  <g color="red">
    <rect id="led0" x="0" y="0" fill="currentcolor" width="5"  height="5" visibility="hidden">
      <animate attributeName="visibility"
               values="visible;hidden;hidden"
               dur="100ms" repeatCount="indefinite"/>
    </rect>
    <rect id="led1" x="0" y="7" fill="currentcolor" width="5" height="5" visibility="hidden">
    </rect>
    <rect id="led2" x="0" y="14" fill="currentcolor" width="5" height="5" visibility="hidden">
    </rect>
  </g>
</svg>
